20200109-103503  K123_54321_invoice.xml verarbeitet -- RechnungsNr:54321/Kundennummer:K123/TotalCHF:1350.00/

20200109-103503  K123_54321_invoice.txt verarbeitet -- FirmaX;HaraldMueller;Rainstrasse27;8610Uster;CHE-999.888.777MWST;Kundennummer:K123;RechnungNr54321;TotalCHF1350.00;ZahlungszielohneAbzug30Tage(20.02.2012)
